{
  "nodes": [
    {
      "label": "j.iwanik",
      "x": 126.92324829101562,
      "y": -65.45006561279297,
      "id": "j.iwanik",
      "attributes": {
        "Modularity Class": "2",
        "Degree": "1",
        "Published Research Papers": "1"
      },
      "color": "rgb(253,126,13)",
      "size": 1.0
    },
    {
      "label": "p.mista",
      "x": 383.3587951660156,
      "y": 914.4086303710938,
      "id": "p.mista",
      "attributes": {
        "Modularity Class": "1",
        "Degree": "3",
        "Published Research Papers": "8"
      },
      "color": "rgb(30,118,178)",
      "size": 8.0
    },
    {
      "label": "z.michna",
      "x": 1077.2032470703125,
      "y": 624.8010864257812,
      "id": "z.michna",
      "attributes": {
        "Modularity Class": "1",
        "Degree": "3",
        "Published Research Papers": "6"
      },
      "color": "rgb(30,118,178)",
      "size": 6.0
    },
    {
      "label": "a.janicki",
      "x": 1022.8460083007812,
      "y": 730.744384765625,
      "id": "a.janicki",
      "attributes": {
        "Modularity Class": "1",
        "Degree": "2",
        "Published Research Papers": "3"
      },
      "color": "rgb(30,118,178)",
      "size": 3.0
    },
    {
      "label": "m.kozlowski",
      "x": 208.0243682861328,
      "y": -759.6815795898438,
      "id": "m.kozlowski",
      "attributes": {
        "Modularity Class": "2",
        "Degree": "4",
        "Published Research Papers": "6"
      },
      "color": "rgb(253,126,13)",
      "size": 6.0
    },
    {
      "label": "s.staskiewicz",
      "x": 371.99755859375,
      "y": -1065.4906005859375,
      "id": "s.staskiewicz",
      "attributes": {
        "Modularity Class": "2",
        "Degree": "1",
        "Published Research Papers": "1"
      },
      "color": "rgb(253,126,13)",
      "size": 1.0
    },
    {
      "label": "t.piesiewicz",
      "x": 145.50033569335938,
      "y": -862.369873046875,
      "id": "t.piesiewicz",
      "attributes": {
        "Modularity Class": "2",
        "Degree": "3",
        "Published Research Papers": "4"
      },
      "color": "rgb(253,126,13)",
      "size": 4.0
    },
    {
      "label": "p.sztuba",
      "x": 1810.616943359375,
      "y": 655.1971435546875,
      "id": "p.sztuba",
      "attributes": {
        "Modularity Class": "1",
        "Degree": "1",
        "Published Research Papers": "1"
      },
      "color": "rgb(30,118,178)",
      "size": 1.0
    },
    {
      "label": "a.weron",
      "x": 739.0938110351562,
      "y": 670.3013305664062,
      "id": "a.weron",
      "attributes": {
        "Modularity Class": "1",
        "Degree": "16",
        "Published Research Papers": "62"
      },
      "color": "rgb(30,118,178)",
      "size": 62.0
    },
    {
      "label": "g.kukla",
      "x": 513.8717651367188,
      "y": 109.4697494506836,
      "id": "g.kukla",
      "attributes": {
        "Modularity Class": "2",
        "Degree": "2",
        "Published Research Papers": "5"
      },
      "color": "rgb(253,126,13)",
      "size": 5.0
    },
    {
      "label": "a.misiorek",
      "x": 270.81195068359375,
      "y": -642.9429321289062,
      "id": "a.misiorek",
      "attributes": {
        "Modularity Class": "2",
        "Degree": "3",
        "Published Research Papers": "16"
      },
      "color": "rgb(253,126,13)",
      "size": 16.0
    },
    {
      "label": "k.burnecki",
      "x": 377.0716247558594,
      "y": 327.6120300292969,
      "id": "k.burnecki",
      "attributes": {
        "Modularity Class": "1",
        "Degree": "10",
        "Published Research Papers": "46"
      },
      "color": "rgb(30,118,178)",
      "size": 46.0
    },
    {
      "label": "r.weron",
      "x": 332.0584411621094,
      "y": -541.1950073242188,
      "id": "r.weron",
      "attributes": {
        "Modularity Class": "2",
        "Degree": "13",
        "Published Research Papers": "42"
      },
      "color": "rgb(253,126,13)",
      "size": 42.0
    },
    {
      "label": "j.janczura",
      "x": 542.74169921875,
      "y": -216.76519775390625,
      "id": "j.janczura",
      "attributes": {
        "Modularity Class": "1",
        "Degree": "3",
        "Published Research Papers": "4"
      },
      "color": "rgb(30,118,178)",
      "size": 4.0
    },
    {
      "label": "p.wilman",
      "x": 477.353759765625,
      "y": -856.2362060546875,
      "id": "p.wilman",
      "attributes": {
        "Modularity Class": "2",
        "Degree": "1",
        "Published Research Papers": "1"
      },
      "color": "rgb(253,126,13)",
      "size": 1.0
    },
    {
      "label": "e.broszkiewicz-suwaj",
      "x": 33.74451446533203,
      "y": -436.5995788574219,
      "id": "e.broszkiewicz-suwaj",
      "attributes": {
        "Modularity Class": "1",
        "Degree": "4",
        "Published Research Papers": "7"
      },
      "color": "rgb(30,118,178)",
      "size": 7.0
    },
    {
      "label": "b.kozlowska",
      "x": 210.0371856689453,
      "y": -237.49827575683594,
      "id": "b.kozlowska",
      "attributes": {
        "Modularity Class": "2",
        "Degree": "2",
        "Published Research Papers": "2"
      },
      "color": "rgb(253,126,13)",
      "size": 2.0
    },
    {
      "label": "m.magdziarz",
      "x": -150.17208862304688,
      "y": 587.9498901367188,
      "id": "m.magdziarz",
      "attributes": {
        "Modularity Class": "1",
        "Degree": "5",
        "Published Research Papers": "14"
      },
      "color": "rgb(30,118,178)",
      "size": 14.0
    },
    {
      "label": "b.przybylowicz",
      "x": 102.86050415039062,
      "y": -1262.4459228515625,
      "id": "b.przybylowicz",
      "attributes": {
        "Modularity Class": "2",
        "Degree": "1",
        "Published Research Papers": "1"
      },
      "color": "rgb(253,126,13)",
      "size": 1.0
    },
    {
      "label": "m.teuerle",
      "x": -533.3993530273438,
      "y": 344.7865905761719,
      "id": "m.teuerle",
      "attributes": {
        "Modularity Class": "1",
        "Degree": "1",
        "Published Research Papers": "1"
      },
      "color": "rgb(30,118,178)",
      "size": 1.0
    },
    {
      "label": "a.makagon",
      "x": -423.0310363769531,
      "y": -1091.3812255859375,
      "id": "a.makagon",
      "attributes": {
        "Modularity Class": "1",
        "Degree": "2",
        "Published Research Papers": "2"
      },
      "color": "rgb(30,118,178)",
      "size": 2.0
    },
    {
      "label": "j.nowicka-zagrajek",
      "x": 268.4096984863281,
      "y": -20.617570877075195,
      "id": "j.nowicka-zagrajek",
      "attributes": {
        "Modularity Class": "2",
        "Degree": "6",
        "Published Research Papers": "25"
      },
      "color": "rgb(253,126,13)",
      "size": 25.0
    },
    {
      "label": "a.jurlewicz",
      "x": -648.205078125,
      "y": 599.4487915039062,
      "id": "a.jurlewicz",
      "attributes": {
        "Modularity Class": "1",
        "Degree": "5",
        "Published Research Papers": "5"
      },
      "color": "rgb(30,118,178)",
      "size": 5.0
    },
    {
      "label": "a.wylomanska",
      "x": -358.5481872558594,
      "y": -150.16497802734375,
      "id": "a.wylomanska",
      "attributes": {
        "Modularity Class": "1",
        "Degree": "9",
        "Published Research Papers": "26"
      },
      "color": "rgb(30,118,178)",
      "size": 26.0
    },
    {
      "label": "m.borgosz-koczwara",
      "x": -410.28570556640625,
      "y": -519.7998046875,
      "id": "m.borgosz-koczwara",
      "attributes": {
        "Modularity Class": "1",
        "Degree": "2",
        "Published Research Papers": "10"
      },
      "color": "rgb(30,118,178)",
      "size": 10.0
    },
    {
      "label": "s.ondruszko",
      "x": -823.6538696289062,
      "y": -572.3814697265625,
      "id": "s.ondruszko",
      "attributes": {
        "Modularity Class": "1",
        "Degree": "1",
        "Published Research Papers": "1"
      },
      "color": "rgb(30,118,178)",
      "size": 1.0
    }
  ],
  "edges": [
    {
      "source": "a.weron",
      "target": "j.janczura",
      "id": "54",
      "attributes": {},
      "color": "rgb(30,118,178)",
      "size": 2,
      "label": "2"
    },
    {
      "source": "j.nowicka-zagrajek",
      "target": "b.kozlowska",
      "id": "129",
      "attributes": {},
      "color": "rgb(253,126,13)",
      "size": 1,
      "label": "1"
    },
    {
      "source": "a.jurlewicz",
      "target": "m.magdziarz",
      "id": "73",
      "attributes": {},
      "color": "rgb(30,118,178)",
      "size": 1,
      "label": "1"
    },
    {
      "source": "m.magdziarz",
      "target": "k.burnecki",
      "id": "81",
      "attributes": {},
      "color": "rgb(30,118,178)",
      "size": 2,
      "label": "2"
    },
    {
      "source": "a.weron",
      "target": "k.burnecki",
      "id": "58",
      "attributes": {},
      "color": "rgb(30,118,178)",
      "size": 14,
      "label": "14"
    },
    {
      "source": "a.weron",
      "target": "r.weron",
      "id": "67",
      "attributes": {},
      "color": "rgb(141,122,96)",
      "size": 10,
      "label": "10"
    },
    {
      "source": "k.burnecki",
      "target": "p.mista",
      "id": "102",
      "attributes": {},
      "color": "rgb(30,118,178)",
      "size": 3,
      "label": "3"
    },
    {
      "source": "r.weron",
      "target": "b.przybylowicz",
      "id": "109",
      "attributes": {},
      "color": "rgb(253,126,13)",
      "size": 1,
      "label": "1"
    },
    {
      "source": "a.wylomanska",
      "target": "a.weron",
      "id": "7",
      "attributes": {},
      "color": "rgb(30,118,178)",
      "size": 5,
      "label": "5"
    },
    {
      "source": "m.teuerle",
      "target": "a.jurlewicz",
      "id": "38",
      "attributes": {},
      "color": "rgb(30,118,178)",
      "size": 1,
      "label": "1"
    },
    {
      "source": "a.janicki",
      "target": "z.michna",
      "id": "48",
      "attributes": {},
      "color": "rgb(30,118,178)",
      "size": 1,
      "label": "1"
    },
    {
      "source": "a.wylomanska",
      "target": "m.borgosz-koczwara",
      "id": "21",
      "attributes": {},
      "color": "rgb(30,118,178)",
      "size": 9,
      "label": "9"
    },
    {
      "source": "r.weron",
      "target": "t.piesiewicz",
      "id": "115",
      "attributes": {},
      "color": "rgb(253,126,13)",
      "size": 1,
      "label": "1"
    },
    {
      "source": "a.weron",
      "target": "a.jurlewicz",
      "id": "49",
      "attributes": {},
      "color": "rgb(30,118,178)",
      "size": 1,
      "label": "1"
    },
    {
      "source": "a.weron",
      "target": "e.broszkiewicz-suwaj",
      "id": "52",
      "attributes": {},
      "color": "rgb(30,118,178)",
      "size": 2,
      "label": "2"
    },
    {
      "source": "a.misiorek",
      "target": "r.weron",
      "id": "90",
      "attributes": {},
      "color": "rgb(253,126,13)",
      "size": 13,
      "label": "13"
    },
    {
      "source": "m.magdziarz",
      "target": "p.mista",
      "id": "83",
      "attributes": {},
      "color": "rgb(30,118,178)",
      "size": 1,
      "label": "1"
    },
    {
      "source": "a.misiorek",
      "target": "m.kozlowski",
      "id": "89",
      "attributes": {},
      "color": "rgb(253,126,13)",
      "size": 2,
      "label": "2"
    },
    {
      "source": "e.broszkiewicz-suwaj",
      "target": "r.weron",
      "id": "76",
      "attributes": {},
      "color": "rgb(141,122,96)",
      "size": 1,
      "label": "1"
    },
    {
      "source": "z.michna",
      "target": "k.burnecki",
      "id": "71",
      "attributes": {},
      "color": "rgb(30,118,178)",
      "size": 1,
      "label": "1"
    },
    {
      "source": "a.jurlewicz",
      "target": "e.broszkiewicz-suwaj",
      "id": "72",
      "attributes": {},
      "color": "rgb(30,118,178)",
      "size": 1,
      "label": "1"
    },
    {
      "source": "k.burnecki",
      "target": "r.weron",
      "id": "103",
      "attributes": {},
      "color": "rgb(141,122,96)",
      "size": 7,
      "label": "7"
    },
    {
      "source": "r.weron",
      "target": "s.staskiewicz",
      "id": "114",
      "attributes": {},
      "color": "rgb(253,126,13)",
      "size": 1,
      "label": "1"
    },
    {
      "source": "k.burnecki",
      "target": "j.janczura",
      "id": "96",
      "attributes": {},
      "color": "rgb(30,118,178)",
      "size": 1,
      "label": "1"
    },
    {
      "source": "r.weron",
      "target": "p.wilman",
      "id": "113",
      "attributes": {},
      "color": "rgb(253,126,13)",
      "size": 1,
      "label": "1"
    },
    {
      "source": "a.weron",
      "target": "t.piesiewicz",
      "id": "69",
      "attributes": {},
      "color": "rgb(141,122,96)",
      "size": 1,
      "label": "1"
    },
    {
      "source": "r.weron",
      "target": "g.kukla",
      "id": "110",
      "attributes": {},
      "color": "rgb(253,126,13)",
      "size": 1,
      "label": "1"
    },
    {
      "source": "r.weron",
      "target": "b.kozlowska",
      "id": "108",
      "attributes": {},
      "color": "rgb(253,126,13)",
      "size": 1,
      "label": "1"
    },
    {
      "source": "a.weron",
      "target": "z.michna",
      "id": "70",
      "attributes": {},
      "color": "rgb(30,118,178)",
      "size": 4,
      "label": "4"
    },
    {
      "source": "a.weron",
      "target": "p.mista",
      "id": "65",
      "attributes": {},
      "color": "rgb(30,118,178)",
      "size": 4,
      "label": "4"
    },
    {
      "source": "a.weron",
      "target": "j.nowicka-zagrajek",
      "id": "55",
      "attributes": {},
      "color": "rgb(141,122,96)",
      "size": 4,
      "label": "4"
    },
    {
      "source": "m.magdziarz",
      "target": "j.janczura",
      "id": "79",
      "attributes": {},
      "color": "rgb(30,118,178)",
      "size": 1,
      "label": "1"
    },
    {
      "source": "a.weron",
      "target": "a.makagon",
      "id": "50",
      "attributes": {},
      "color": "rgb(30,118,178)",
      "size": 1,
      "label": "1"
    },
    {
      "source": "m.kozlowski",
      "target": "r.weron",
      "id": "106",
      "attributes": {},
      "color": "rgb(253,126,13)",
      "size": 1,
      "label": "1"
    },
    {
      "source": "a.janicki",
      "target": "a.weron",
      "id": "47",
      "attributes": {},
      "color": "rgb(30,118,178)",
      "size": 2,
      "label": "2"
    },
    {
      "source": "a.wylomanska",
      "target": "s.ondruszko",
      "id": "26",
      "attributes": {},
      "color": "rgb(30,118,178)",
      "size": 1,
      "label": "1"
    },
    {
      "source": "a.wylomanska",
      "target": "a.jurlewicz",
      "id": "3",
      "attributes": {},
      "color": "rgb(30,118,178)",
      "size": 1,
      "label": "1"
    },
    {
      "source": "a.misiorek",
      "target": "k.burnecki",
      "id": "88",
      "attributes": {},
      "color": "rgb(141,122,96)",
      "size": 1,
      "label": "1"
    },
    {
      "source": "a.weron",
      "target": "m.borgosz-koczwara",
      "id": "60",
      "attributes": {},
      "color": "rgb(30,118,178)",
      "size": 1,
      "label": "1"
    },
    {
      "source": "j.nowicka-zagrajek",
      "target": "j.iwanik",
      "id": "130",
      "attributes": {},
      "color": "rgb(253,126,13)",
      "size": 1,
      "label": "1"
    },
    {
      "source": "a.weron",
      "target": "m.kozlowski",
      "id": "61",
      "attributes": {},
      "color": "rgb(141,122,96)",
      "size": 1,
      "label": "1"
    },
    {
      "source": "a.weron",
      "target": "m.magdziarz",
      "id": "62",
      "attributes": {},
      "color": "rgb(30,118,178)",
      "size": 9,
      "label": "9"
    },
    {
      "source": "a.wylomanska",
      "target": "e.broszkiewicz-suwaj",
      "id": "9",
      "attributes": {},
      "color": "rgb(30,118,178)",
      "size": 3,
      "label": "3"
    },
    {
      "source": "m.kozlowski",
      "target": "t.piesiewicz",
      "id": "107",
      "attributes": {},
      "color": "rgb(253,126,13)",
      "size": 2,
      "label": "2"
    },
    {
      "source": "a.wylomanska",
      "target": "k.burnecki",
      "id": "18",
      "attributes": {},
      "color": "rgb(30,118,178)",
      "size": 1,
      "label": "1"
    },
    {
      "source": "k.burnecki",
      "target": "g.kukla",
      "id": "93",
      "attributes": {},
      "color": "rgb(141,122,96)",
      "size": 4,
      "label": "4"
    },
    {
      "source": "r.weron",
      "target": "j.nowicka-zagrajek",
      "id": "112",
      "attributes": {},
      "color": "rgb(253,126,13)",
      "size": 3,
      "label": "3"
    },
    {
      "source": "a.wylomanska",
      "target": "r.weron",
      "id": "25",
      "attributes": {},
      "color": "rgb(141,122,96)",
      "size": 1,
      "label": "1"
    },
    {
      "source": "k.burnecki",
      "target": "j.nowicka-zagrajek",
      "id": "97",
      "attributes": {},
      "color": "rgb(141,122,96)",
      "size": 12,
      "label": "12"
    },
    {
      "source": "a.wylomanska",
      "target": "a.makagon",
      "id": "5",
      "attributes": {},
      "color": "rgb(30,118,178)",
      "size": 1,
      "label": "1"
    },
    {
      "source": "a.weron",
      "target": "p.sztuba",
      "id": "66",
      "attributes": {},
      "color": "rgb(30,118,178)",
      "size": 1,
      "label": "1"
    },
    {
      "source": "a.wylomanska",
      "target": "j.nowicka-zagrajek",
      "id": "15",
      "attributes": {},
      "color": "rgb(141,122,96)",
      "size": 4,
      "label": "4"
    }
  ]
}