{
  "nodes": [
    {
      "label": "z.michna",
      "x": 1077.2032470703125,
      "y": 624.8010864257812,
      "id": "z.michna",
      "attributes": {
        "Modularity Class": "1",
        "Degree": "2",
        "Published Research Papers": "3"
      },
      "color": "rgb(30,118,178)",
      "size": 3.0
    },
    {
      "label": "a.janicki",
      "x": 1022.8460083007812,
      "y": 730.744384765625,
      "id": "a.janicki",
      "attributes": {
        "Modularity Class": "1",
        "Degree": "2",
        "Published Research Papers": "3"
      },
      "color": "rgb(30,118,178)",
      "size": 3.0
    },
    {
      "label": "a.weron",
      "x": 739.0938110351562,
      "y": 670.3013305664062,
      "id": "a.weron",
      "attributes": {
        "Modularity Class": "1",
        "Degree": "6",
        "Published Research Papers": "11"
      },
      "color": "rgb(30,118,178)",
      "size": 11.0
    },
    {
      "label": "k.burnecki",
      "x": 377.0716247558594,
      "y": 327.6120300292969,
      "id": "k.burnecki",
      "attributes": {
        "Modularity Class": "1",
        "Degree": "1",
        "Published Research Papers": "2"
      },
      "color": "rgb(30,118,178)",
      "size": 2.0
    },
    {
      "label": "r.weron",
      "x": 332.0584411621094,
      "y": -541.1950073242188,
      "id": "r.weron",
      "attributes": {
        "Modularity Class": "1",
        "Degree": "1",
        "Published Research Papers": "3"
      },
      "color": "rgb(30,118,178)",
      "size": 3.0
    },
    {
      "label": "j.nowicka-zagrajek",
      "x": 268.4096984863281,
      "y": -20.617570877075195,
      "id": "j.nowicka-zagrajek",
      "attributes": {
        "Modularity Class": "1",
        "Degree": "1",
        "Published Research Papers": "1"
      },
      "color": "rgb(30,118,178)",
      "size": 1.0
    },
    {
      "label": "a.jurlewicz",
      "x": -648.205078125,
      "y": 599.4487915039062,
      "id": "a.jurlewicz",
      "attributes": {
        "Modularity Class": "1",
        "Degree": "1",
        "Published Research Papers": "1"
      },
      "color": "rgb(30,118,178)",
      "size": 1.0
    }
  ],
  "edges": [
    {
      "source": "a.weron",
      "target": "k.burnecki",
      "id": "58",
      "attributes": {},
      "color": "rgb(30,118,178)",
      "size": 2,
      "label": "2"
    },
    {
      "source": "a.weron",
      "target": "r.weron",
      "id": "67",
      "attributes": {},
      "color": "rgb(30,118,178)",
      "size": 3,
      "label": "3"
    },
    {
      "source": "a.janicki",
      "target": "z.michna",
      "id": "48",
      "attributes": {},
      "color": "rgb(30,118,178)",
      "size": 1,
      "label": "1"
    },
    {
      "source": "a.weron",
      "target": "a.jurlewicz",
      "id": "49",
      "attributes": {},
      "color": "rgb(30,118,178)",
      "size": 1,
      "label": "1"
    },
    {
      "source": "a.weron",
      "target": "z.michna",
      "id": "70",
      "attributes": {},
      "color": "rgb(30,118,178)",
      "size": 2,
      "label": "2"
    },
    {
      "source": "a.weron",
      "target": "j.nowicka-zagrajek",
      "id": "55",
      "attributes": {},
      "color": "rgb(30,118,178)",
      "size": 1,
      "label": "1"
    },
    {
      "source": "a.janicki",
      "target": "a.weron",
      "id": "47",
      "attributes": {},
      "color": "rgb(30,118,178)",
      "size": 2,
      "label": "2"
    }
  ]
}