{
  "nodes": [
    {
      "label": "j.iwanik",
      "x": 126.92324829101562,
      "y": -65.45006561279297,
      "id": "j.iwanik",
      "attributes": {
        "Modularity Class": "1",
        "Degree": "1"
      },
      "color": "rgb(154,150,229)",
      "size": 20.0
    },
    {
      "label": "p.mista",
      "x": 383.3587951660156,
      "y": 914.4086303710938,
      "id": "p.mista",
      "attributes": {
        "Modularity Class": "1",
        "Degree": "3"
      },
      "color": "rgb(154,150,229)",
      "size": 26.399999618530273
    },
    {
      "label": "z.michna",
      "x": 1077.2032470703125,
      "y": 624.8010864257812,
      "id": "z.michna",
      "attributes": {
        "Modularity Class": "1",
        "Degree": "3"
      },
      "color": "rgb(154,150,229)",
      "size": 26.399999618530273
    },
    {
      "label": "l.plociniczak",
      "x": -521.2247314453125,
      "y": 1173.2650146484375,
      "id": "l.plociniczak",
      "attributes": {
        "Modularity Class": "2",
        "Degree": "4"
      },
      "color": "rgb(40,179,106)",
      "size": 29.599998474121094
    },
    {
      "label": "a.janicki",
      "x": 1022.8460083007812,
      "y": 730.744384765625,
      "id": "a.janicki",
      "attributes": {
        "Modularity Class": "1",
        "Degree": "2"
      },
      "color": "rgb(154,150,229)",
      "size": 23.200000762939453
    },
    {
      "label": "m.kozlowski",
      "x": 208.0243682861328,
      "y": -759.6815795898438,
      "id": "m.kozlowski",
      "attributes": {
        "Modularity Class": "1",
        "Degree": "4"
      },
      "color": "rgb(154,150,229)",
      "size": 29.599998474121094
    },
    {
      "label": "s.staskiewicz",
      "x": 371.99755859375,
      "y": -1065.4906005859375,
      "id": "s.staskiewicz",
      "attributes": {
        "Modularity Class": "1",
        "Degree": "1"
      },
      "color": "rgb(154,150,229)",
      "size": 20.0
    },
    {
      "label": "t.piesiewicz",
      "x": 145.50033569335938,
      "y": -862.369873046875,
      "id": "t.piesiewicz",
      "attributes": {
        "Modularity Class": "1",
        "Degree": "3"
      },
      "color": "rgb(154,150,229)",
      "size": 26.399999618530273
    },
    {
      "label": "a.michalak",
      "x": -1083.33203125,
      "y": -823.0335083007812,
      "id": "a.michalak",
      "attributes": {
        "Modularity Class": "0",
        "Degree": "1"
      },
      "color": "rgb(249,119,67)",
      "size": 20.0
    },
    {
      "label": "p.sztuba",
      "x": 1810.616943359375,
      "y": 655.1971435546875,
      "id": "p.sztuba",
      "attributes": {
        "Modularity Class": "1",
        "Degree": "1"
      },
      "color": "rgb(154,150,229)",
      "size": 20.0
    },
    {
      "label": "w.okrasinski",
      "x": -583.089599609375,
      "y": 1210.648681640625,
      "id": "w.okrasinski",
      "attributes": {
        "Modularity Class": "2",
        "Degree": "1"
      },
      "color": "rgb(40,179,106)",
      "size": 20.0
    },
    {
      "label": "a.weron",
      "x": 739.0938110351562,
      "y": 670.3013305664062,
      "id": "a.weron",
      "attributes": {
        "Modularity Class": "1",
        "Degree": "25"
      },
      "color": "rgb(154,150,229)",
      "size": 96.79999542236328
    },
    {
      "label": "p.kowalek",
      "x": 883.2052612304688,
      "y": -67.71240234375,
      "id": "p.kowalek",
      "attributes": {
        "Modularity Class": "1",
        "Degree": "4"
      },
      "color": "rgb(154,150,229)",
      "size": 29.599998474121094
    },
    {
      "label": "g.kukla",
      "x": 513.8717651367188,
      "y": 109.4697494506836,
      "id": "g.kukla",
      "attributes": {
        "Modularity Class": "1",
        "Degree": "2"
      },
      "color": "rgb(154,150,229)",
      "size": 23.200000762939453
    },
    {
      "label": "a.misiorek",
      "x": 270.81195068359375,
      "y": -642.9429321289062,
      "id": "a.misiorek",
      "attributes": {
        "Modularity Class": "1",
        "Degree": "3"
      },
      "color": "rgb(154,150,229)",
      "size": 26.399999618530273
    },
    {
      "label": "d.kucharczyk",
      "x": -600.0682373046875,
      "y": -412.0174865722656,
      "id": "d.kucharczyk",
      "attributes": {
        "Modularity Class": "0",
        "Degree": "3"
      },
      "color": "rgb(249,119,67)",
      "size": 26.399999618530273
    },
    {
      "label": "p.kruczek",
      "x": -654.4434204101562,
      "y": -2.75968861579895,
      "id": "p.kruczek",
      "attributes": {
        "Modularity Class": "0",
        "Degree": "5"
      },
      "color": "rgb(249,119,67)",
      "size": 32.79999923706055
    },
    {
      "label": "j.hebda-sobkowicz",
      "x": -1142.4193115234375,
      "y": -351.4686584472656,
      "id": "j.hebda-sobkowicz",
      "attributes": {
        "Modularity Class": "0",
        "Degree": "1"
      },
      "color": "rgb(249,119,67)",
      "size": 20.0
    },
    {
      "label": "m.malek",
      "x": 865.8375854492188,
      "y": -596.0369873046875,
      "id": "m.malek",
      "attributes": {
        "Modularity Class": "1",
        "Degree": "4"
      },
      "color": "rgb(154,150,229)",
      "size": 29.599998474121094
    },
    {
      "label": "a.kumar",
      "x": -700.1557006835938,
      "y": -806.7012939453125,
      "id": "a.kumar",
      "attributes": {
        "Modularity Class": "0",
        "Degree": "1"
      },
      "color": "rgb(249,119,67)",
      "size": 20.0
    },
    {
      "label": "k.burnecki",
      "x": 377.0716247558594,
      "y": 327.6120300292969,
      "id": "k.burnecki",
      "attributes": {
        "Modularity Class": "1",
        "Degree": "22"
      },
      "color": "rgb(154,150,229)",
      "size": 87.19999694824219
    },
    {
      "label": "r.weron",
      "x": 332.0584411621094,
      "y": -541.1950073242188,
      "id": "r.weron",
      "attributes": {
        "Modularity Class": "1",
        "Degree": "14"
      },
      "color": "rgb(154,150,229)",
      "size": 61.599998474121094
    },
    {
      "label": "j.janczura",
      "x": 542.74169921875,
      "y": -216.76519775390625,
      "id": "j.janczura",
      "attributes": {
        "Modularity Class": "1",
        "Degree": "14"
      },
      "color": "rgb(154,150,229)",
      "size": 61.599998474121094
    },
    {
      "label": "p.wilman",
      "x": 477.353759765625,
      "y": -856.2362060546875,
      "id": "p.wilman",
      "attributes": {
        "Modularity Class": "1",
        "Degree": "1"
      },
      "color": "rgb(154,150,229)",
      "size": 20.0
    },
    {
      "label": "j.szwabinski",
      "x": 967.4521484375,
      "y": 18.151227951049805,
      "id": "j.szwabinski",
      "attributes": {
        "Modularity Class": "1",
        "Degree": "5"
      },
      "color": "rgb(154,150,229)",
      "size": 32.79999923706055
    },
    {
      "label": "m.muszkieta",
      "x": 262.3974914550781,
      "y": 1370.6844482421875,
      "id": "m.muszkieta",
      "attributes": {
        "Modularity Class": "1",
        "Degree": "3"
      },
      "color": "rgb(154,150,229)",
      "size": 26.399999618530273
    },
    {
      "label": "a.grzesiek",
      "x": -306.8843688964844,
      "y": 43.81584548950195,
      "id": "a.grzesiek",
      "attributes": {
        "Modularity Class": "0",
        "Degree": "3"
      },
      "color": "rgb(249,119,67)",
      "size": 26.399999618530273
    },
    {
      "label": "g.sikora",
      "x": 32.50312423706055,
      "y": 231.5400848388672,
      "id": "g.sikora",
      "attributes": {
        "Modularity Class": "0",
        "Degree": "12"
      },
      "color": "rgb(249,119,67)",
      "size": 55.20000076293945
    },
    {
      "label": "h.loch-olszewska",
      "x": 805.2763671875,
      "y": 67.07501220703125,
      "id": "h.loch-olszewska",
      "attributes": {
        "Modularity Class": "1",
        "Degree": "7"
      },
      "color": "rgb(154,150,229)",
      "size": 39.19999694824219
    },
    {
      "label": "e.broszkiewicz-suwaj",
      "x": 33.74451446533203,
      "y": -436.5995788574219,
      "id": "e.broszkiewicz-suwaj",
      "attributes": {
        "Modularity Class": "0",
        "Degree": "4"
      },
      "color": "rgb(249,119,67)",
      "size": 29.599998474121094
    },
    {
      "label": "w.mydlarczyk",
      "x": -228.70896911621094,
      "y": 102.92964172363281,
      "id": "w.mydlarczyk",
      "attributes": {
        "Modularity Class": "0",
        "Degree": "2"
      },
      "color": "rgb(249,119,67)",
      "size": 23.200000762939453
    },
    {
      "label": "b.kozlowska",
      "x": 210.0371856689453,
      "y": -237.49827575683594,
      "id": "b.kozlowska",
      "attributes": {
        "Modularity Class": "1",
        "Degree": "2"
      },
      "color": "rgb(154,150,229)",
      "size": 23.200000762939453
    },
    {
      "label": "t.zorawik",
      "x": -312.9669494628906,
      "y": 532.4822387695312,
      "id": "t.zorawik",
      "attributes": {
        "Modularity Class": "2",
        "Degree": "2"
      },
      "color": "rgb(40,179,106)",
      "size": 23.200000762939453
    },
    {
      "label": "m.magdziarz",
      "x": -150.17208862304688,
      "y": 587.9498901367188,
      "id": "m.magdziarz",
      "attributes": {
        "Modularity Class": "2",
        "Degree": "12"
      },
      "color": "rgb(40,179,106)",
      "size": 55.20000076293945
    },
    {
      "label": "b.przybylowicz",
      "x": 102.86050415039062,
      "y": -1262.4459228515625,
      "id": "b.przybylowicz",
      "attributes": {
        "Modularity Class": "1",
        "Degree": "1"
      },
      "color": "rgb(154,150,229)",
      "size": 20.0
    },
    {
      "label": "g.krzyzanowski",
      "x": -509.5541687011719,
      "y": 1080.6453857421875,
      "id": "g.krzyzanowski",
      "attributes": {
        "Modularity Class": "2",
        "Degree": "2"
      },
      "color": "rgb(40,179,106)",
      "size": 23.200000762939453
    },
    {
      "label": "j.gruszka",
      "x": 1154.912841796875,
      "y": -24.184406280517578,
      "id": "j.gruszka",
      "attributes": {
        "Modularity Class": "1",
        "Degree": "1"
      },
      "color": "rgb(154,150,229)",
      "size": 20.0
    },
    {
      "label": "j.slezak",
      "x": -95.93680572509766,
      "y": 852.5692138671875,
      "id": "j.slezak",
      "attributes": {
        "Modularity Class": "2",
        "Degree": "3"
      },
      "color": "rgb(40,179,106)",
      "size": 26.399999618530273
    },
    {
      "label": "m.teuerle",
      "x": -533.3993530273438,
      "y": 344.7865905761719,
      "id": "m.teuerle",
      "attributes": {
        "Modularity Class": "0",
        "Degree": "12"
      },
      "color": "rgb(249,119,67)",
      "size": 55.20000076293945
    },
    {
      "label": "s.orzel",
      "x": -28.398691177368164,
      "y": 29.30955696105957,
      "id": "s.orzel",
      "attributes": {
        "Modularity Class": "0",
        "Degree": "6"
      },
      "color": "rgb(249,119,67)",
      "size": 36.0
    },
    {
      "label": "a.makagon",
      "x": -423.0310363769531,
      "y": -1091.3812255859375,
      "id": "a.makagon",
      "attributes": {
        "Modularity Class": "0",
        "Degree": "2"
      },
      "color": "rgb(249,119,67)",
      "size": 23.200000762939453
    },
    {
      "label": "j.sokolowski",
      "x": -802.9580078125,
      "y": -46.62275314331055,
      "id": "j.sokolowski",
      "attributes": {
        "Modularity Class": "0",
        "Degree": "2"
      },
      "color": "rgb(249,119,67)",
      "size": 23.200000762939453
    },
    {
      "label": "j.obuchowski",
      "x": -566.137939453125,
      "y": -287.2854309082031,
      "id": "j.obuchowski",
      "attributes": {
        "Modularity Class": "0",
        "Degree": "4"
      },
      "color": "rgb(249,119,67)",
      "size": 29.599998474121094
    },
    {
      "label": "j.nowicka-zagrajek",
      "x": 268.4096984863281,
      "y": -20.617570877075195,
      "id": "j.nowicka-zagrajek",
      "attributes": {
        "Modularity Class": "1",
        "Degree": "6"
      },
      "color": "rgb(154,150,229)",
      "size": 36.0
    },
    {
      "label": "z.palmowski",
      "x": -434.1792907714844,
      "y": 1248.4327392578125,
      "id": "z.palmowski",
      "attributes": {
        "Modularity Class": "2",
        "Degree": "2"
      },
      "color": "rgb(40,179,106)",
      "size": 23.200000762939453
    },
    {
      "label": "r.poloczanski",
      "x": -909.311767578125,
      "y": 196.10293579101562,
      "id": "r.poloczanski",
      "attributes": {
        "Modularity Class": "0",
        "Degree": "3"
      },
      "color": "rgb(249,119,67)",
      "size": 26.399999618530273
    },
    {
      "label": "a.jurlewicz",
      "x": -648.205078125,
      "y": 599.4487915039062,
      "id": "a.jurlewicz",
      "attributes": {
        "Modularity Class": "0",
        "Degree": "7"
      },
      "color": "rgb(249,119,67)",
      "size": 39.19999694824219
    },
    {
      "label": "w.nitka",
      "x": 986.412109375,
      "y": -518.310302734375,
      "id": "w.nitka",
      "attributes": {
        "Modularity Class": "1",
        "Degree": "4"
      },
      "color": "rgb(154,150,229)",
      "size": 29.599998474121094
    },
    {
      "label": "m.balcerek",
      "x": 177.72662353515625,
      "y": 653.6817626953125,
      "id": "m.balcerek",
      "attributes": {
        "Modularity Class": "1",
        "Degree": "6"
      },
      "color": "rgb(154,150,229)",
      "size": 36.0
    },
    {
      "label": "j.gajda",
      "x": -261.05291748046875,
      "y": 282.0142517089844,
      "id": "j.gajda",
      "attributes": {
        "Modularity Class": "0",
        "Degree": "8"
      },
      "color": "rgb(249,119,67)",
      "size": 42.400001525878906
    },
    {
      "label": "a.stanislavsky",
      "x": 828.5650634765625,
      "y": -398.3599548339844,
      "id": "a.stanislavsky",
      "attributes": {
        "Modularity Class": "1",
        "Degree": "5"
      },
      "color": "rgb(154,150,229)",
      "size": 32.79999923706055
    },
    {
      "label": "g.zak",
      "x": -650.1347045898438,
      "y": -241.38218688964844,
      "id": "g.zak",
      "attributes": {
        "Modularity Class": "0",
        "Degree": "4"
      },
      "color": "rgb(249,119,67)",
      "size": 29.599998474121094
    },
    {
      "label": "l.bielak",
      "x": 25.700971603393555,
      "y": -238.64434814453125,
      "id": "l.bielak",
      "attributes": {
        "Modularity Class": "0",
        "Degree": "2"
      },
      "color": "rgb(249,119,67)",
      "size": 23.200000762939453
    },
    {
      "label": "a.wylomanska",
      "x": -358.5481872558594,
      "y": -150.16497802734375,
      "id": "a.wylomanska",
      "attributes": {
        "Modularity Class": "0",
        "Degree": "26"
      },
      "color": "rgb(249,119,67)",
      "size": 100.0
    },
    {
      "label": "m.borgosz-koczwara",
      "x": -410.28570556640625,
      "y": -519.7998046875,
      "id": "m.borgosz-koczwara",
      "attributes": {
        "Modularity Class": "0",
        "Degree": "2"
      },
      "color": "rgb(249,119,67)",
      "size": 23.200000762939453
    },
    {
      "label": "a.wilkowska",
      "x": -1565.432861328125,
      "y": 542.3701171875,
      "id": "a.wilkowska",
      "attributes": {
        "Modularity Class": "0",
        "Degree": "2"
      },
      "color": "rgb(249,119,67)",
      "size": 23.200000762939453
    },
    {
      "label": "s.ondruszko",
      "x": -823.6538696289062,
      "y": -572.3814697265625,
      "id": "s.ondruszko",
      "attributes": {
        "Modularity Class": "0",
        "Degree": "1"
      },
      "color": "rgb(249,119,67)",
      "size": 20.0
    }
  ],
  "edges": [
    {
      "source": "a.jurlewicz",
      "target": "w.mydlarczyk",
      "id": "75",
      "attributes": {},
      "color": "rgb(249,119,67)",
      "size": 1.0,
      "label": "1"
    },
    {
      "source": "a.weron",
      "target": "j.janczura",
      "id": "54",
      "attributes": {},
      "color": "rgb(154,150,229)",
      "size": 10.0,
      "label": "10"
    },
    {
      "source": "h.loch-olszewska",
      "target": "j.szwabinski",
      "id": "126",
      "attributes": {},
      "color": "rgb(154,150,229)",
      "size": 4.0,
      "label": "4"
    },
    {
      "source": "j.nowicka-zagrajek",
      "target": "b.kozlowska",
      "id": "129",
      "attributes": {},
      "color": "rgb(154,150,229)",
      "size": 1.0,
      "label": "1"
    },
    {
      "source": "g.sikora",
      "target": "l.bielak",
      "id": "34",
      "attributes": {},
      "color": "rgb(249,119,67)",
      "size": 1.0,
      "label": "1"
    },
    {
      "source": "a.wylomanska",
      "target": "j.janczura",
      "id": "14",
      "attributes": {},
      "color": "rgb(201,134,148)",
      "size": 5.0,
      "label": "5"
    },
    {
      "source": "s.orzel",
      "target": "w.mydlarczyk",
      "id": "87",
      "attributes": {},
      "color": "rgb(249,119,67)",
      "size": 1.0,
      "label": "1"
    },
    {
      "source": "a.jurlewicz",
      "target": "m.magdziarz",
      "id": "73",
      "attributes": {},
      "color": "rgb(144,149,86)",
      "size": 2.0,
      "label": "2"
    },
    {
      "source": "m.magdziarz",
      "target": "k.burnecki",
      "id": "81",
      "attributes": {},
      "color": "rgb(97,164,167)",
      "size": 5.0,
      "label": "5"
    },
    {
      "source": "g.sikora",
      "target": "d.kucharczyk",
      "id": "29",
      "attributes": {},
      "color": "rgb(249,119,67)",
      "size": 1.0,
      "label": "1"
    },
    {
      "source": "a.weron",
      "target": "p.kowalek",
      "id": "64",
      "attributes": {},
      "color": "rgb(154,150,229)",
      "size": 2.0,
      "label": "2"
    },
    {
      "source": "r.weron",
      "target": "j.janczura",
      "id": "111",
      "attributes": {},
      "color": "rgb(154,150,229)",
      "size": 9.0,
      "label": "9"
    },
    {
      "source": "a.jurlewicz",
      "target": "s.orzel",
      "id": "74",
      "attributes": {},
      "color": "rgb(249,119,67)",
      "size": 1.0,
      "label": "1"
    },
    {
      "source": "j.gajda",
      "target": "t.zorawik",
      "id": "138",
      "attributes": {},
      "color": "rgb(144,149,86)",
      "size": 1.0,
      "label": "1"
    },
    {
      "source": "a.grzesiek",
      "target": "m.teuerle",
      "id": "2",
      "attributes": {},
      "color": "rgb(249,119,67)",
      "size": 2.0,
      "label": "2"
    },
    {
      "source": "g.sikora",
      "target": "a.weron",
      "id": "28",
      "attributes": {},
      "color": "rgb(201,134,148)",
      "size": 7.0,
      "label": "7"
    },
    {
      "source": "a.weron",
      "target": "k.burnecki",
      "id": "58",
      "attributes": {},
      "color": "rgb(154,150,229)",
      "size": 31.0,
      "label": "31"
    },
    {
      "source": "a.weron",
      "target": "r.weron",
      "id": "67",
      "attributes": {},
      "color": "rgb(154,150,229)",
      "size": 10.0,
      "label": "10"
    },
    {
      "source": "k.burnecki",
      "target": "m.malek",
      "id": "100",
      "attributes": {},
      "color": "rgb(154,150,229)",
      "size": 1.0,
      "label": "1"
    },
    {
      "source": "k.burnecki",
      "target": "p.mista",
      "id": "102",
      "attributes": {},
      "color": "rgb(154,150,229)",
      "size": 3.0,
      "label": "3"
    },
    {
      "source": "r.weron",
      "target": "b.przybylowicz",
      "id": "109",
      "attributes": {},
      "color": "rgb(154,150,229)",
      "size": 1.0,
      "label": "1"
    },
    {
      "source": "a.wylomanska",
      "target": "a.weron",
      "id": "7",
      "attributes": {},
      "color": "rgb(201,134,148)",
      "size": 5.0,
      "label": "5"
    },
    {
      "source": "m.teuerle",
      "target": "a.jurlewicz",
      "id": "38",
      "attributes": {},
      "color": "rgb(249,119,67)",
      "size": 3.0,
      "label": "3"
    },
    {
      "source": "a.janicki",
      "target": "z.michna",
      "id": "48",
      "attributes": {},
      "color": "rgb(154,150,229)",
      "size": 1.0,
      "label": "1"
    },
    {
      "source": "a.wylomanska",
      "target": "g.zak",
      "id": "11",
      "attributes": {},
      "color": "rgb(249,119,67)",
      "size": 10.0,
      "label": "10"
    },
    {
      "source": "a.wylomanska",
      "target": "m.borgosz-koczwara",
      "id": "21",
      "attributes": {},
      "color": "rgb(249,119,67)",
      "size": 9.0,
      "label": "9"
    },
    {
      "source": "k.burnecki",
      "target": "j.slezak",
      "id": "98",
      "attributes": {},
      "color": "rgb(97,164,167)",
      "size": 1.0,
      "label": "1"
    },
    {
      "source": "r.weron",
      "target": "t.piesiewicz",
      "id": "115",
      "attributes": {},
      "color": "rgb(154,150,229)",
      "size": 1.0,
      "label": "1"
    },
    {
      "source": "j.gajda",
      "target": "r.poloczanski",
      "id": "137",
      "attributes": {},
      "color": "rgb(249,119,67)",
      "size": 1.0,
      "label": "1"
    },
    {
      "source": "m.magdziarz",
      "target": "l.plociniczak",
      "id": "82",
      "attributes": {},
      "color": "rgb(40,179,106)",
      "size": 1.0,
      "label": "1"
    },
    {
      "source": "j.szwabinski",
      "target": "j.gruszka",
      "id": "131",
      "attributes": {},
      "color": "rgb(154,150,229)",
      "size": 1.0,
      "label": "1"
    },
    {
      "source": "g.sikora",
      "target": "k.burnecki",
      "id": "33",
      "attributes": {},
      "color": "rgb(201,134,148)",
      "size": 10.0,
      "label": "10"
    },
    {
      "source": "a.weron",
      "target": "a.jurlewicz",
      "id": "49",
      "attributes": {},
      "color": "rgb(201,134,148)",
      "size": 2.0,
      "label": "2"
    },
    {
      "source": "a.wylomanska",
      "target": "j.hebda-sobkowicz",
      "id": "13",
      "attributes": {},
      "color": "rgb(249,119,67)",
      "size": 2.0,
      "label": "2"
    },
    {
      "source": "a.wylomanska",
      "target": "a.kumar",
      "id": "4",
      "attributes": {},
      "color": "rgb(249,119,67)",
      "size": 1.0,
      "label": "1"
    },
    {
      "source": "k.burnecki",
      "target": "j.gajda",
      "id": "95",
      "attributes": {},
      "color": "rgb(201,134,148)",
      "size": 1.0,
      "label": "1"
    },
    {
      "source": "m.magdziarz",
      "target": "g.krzyzanowski",
      "id": "77",
      "attributes": {},
      "color": "rgb(40,179,106)",
      "size": 1.0,
      "label": "1"
    },
    {
      "source": "a.weron",
      "target": "e.broszkiewicz-suwaj",
      "id": "52",
      "attributes": {},
      "color": "rgb(201,134,148)",
      "size": 2.0,
      "label": "2"
    },
    {
      "source": "m.teuerle",
      "target": "p.kruczek",
      "id": "45",
      "attributes": {},
      "color": "rgb(249,119,67)",
      "size": 1.0,
      "label": "1"
    },
    {
      "source": "a.misiorek",
      "target": "r.weron",
      "id": "90",
      "attributes": {},
      "color": "rgb(154,150,229)",
      "size": 13.0,
      "label": "13"
    },
    {
      "source": "a.weron",
      "target": "m.balcerek",
      "id": "59",
      "attributes": {},
      "color": "rgb(154,150,229)",
      "size": 3.0,
      "label": "3"
    },
    {
      "source": "j.janczura",
      "target": "w.nitka",
      "id": "124",
      "attributes": {},
      "color": "rgb(154,150,229)",
      "size": 1.0,
      "label": "1"
    },
    {
      "source": "m.magdziarz",
      "target": "p.mista",
      "id": "83",
      "attributes": {},
      "color": "rgb(97,164,167)",
      "size": 1.0,
      "label": "1"
    },
    {
      "source": "g.sikora",
      "target": "m.muszkieta",
      "id": "36",
      "attributes": {},
      "color": "rgb(201,134,148)",
      "size": 1.0,
      "label": "1"
    },
    {
      "source": "a.grzesiek",
      "target": "a.wylomanska",
      "id": "0",
      "attributes": {},
      "color": "rgb(249,119,67)",
      "size": 10.0,
      "label": "10"
    },
    {
      "source": "a.misiorek",
      "target": "m.kozlowski",
      "id": "89",
      "attributes": {},
      "color": "rgb(154,150,229)",
      "size": 2.0,
      "label": "2"
    },
    {
      "source": "e.broszkiewicz-suwaj",
      "target": "r.weron",
      "id": "76",
      "attributes": {},
      "color": "rgb(201,134,148)",
      "size": 1.0,
      "label": "1"
    },
    {
      "source": "z.michna",
      "target": "k.burnecki",
      "id": "71",
      "attributes": {},
      "color": "rgb(154,150,229)",
      "size": 1.0,
      "label": "1"
    },
    {
      "source": "a.stanislavsky",
      "target": "w.nitka",
      "id": "118",
      "attributes": {},
      "color": "rgb(154,150,229)",
      "size": 1.0,
      "label": "1"
    },
    {
      "source": "a.jurlewicz",
      "target": "e.broszkiewicz-suwaj",
      "id": "72",
      "attributes": {},
      "color": "rgb(249,119,67)",
      "size": 1.0,
      "label": "1"
    },
    {
      "source": "k.burnecki",
      "target": "r.weron",
      "id": "103",
      "attributes": {},
      "color": "rgb(154,150,229)",
      "size": 9.0,
      "label": "9"
    },
    {
      "source": "a.weron",
      "target": "h.loch-olszewska",
      "id": "53",
      "attributes": {},
      "color": "rgb(154,150,229)",
      "size": 5.0,
      "label": "5"
    },
    {
      "source": "r.weron",
      "target": "s.staskiewicz",
      "id": "114",
      "attributes": {},
      "color": "rgb(154,150,229)",
      "size": 1.0,
      "label": "1"
    },
    {
      "source": "k.burnecki",
      "target": "j.janczura",
      "id": "96",
      "attributes": {},
      "color": "rgb(154,150,229)",
      "size": 6.0,
      "label": "6"
    },
    {
      "source": "a.stanislavsky",
      "target": "j.janczura",
      "id": "116",
      "attributes": {},
      "color": "rgb(154,150,229)",
      "size": 1.0,
      "label": "1"
    },
    {
      "source": "a.wylomanska",
      "target": "p.kruczek",
      "id": "23",
      "attributes": {},
      "color": "rgb(249,119,67)",
      "size": 11.0,
      "label": "11"
    },
    {
      "source": "h.loch-olszewska",
      "target": "p.kowalek",
      "id": "128",
      "attributes": {},
      "color": "rgb(154,150,229)",
      "size": 3.0,
      "label": "3"
    },
    {
      "source": "r.weron",
      "target": "p.wilman",
      "id": "113",
      "attributes": {},
      "color": "rgb(154,150,229)",
      "size": 1.0,
      "label": "1"
    },
    {
      "source": "a.wylomanska",
      "target": "g.sikora",
      "id": "10",
      "attributes": {},
      "color": "rgb(249,119,67)",
      "size": 15.0,
      "label": "15"
    },
    {
      "source": "m.magdziarz",
      "target": "j.slezak",
      "id": "80",
      "attributes": {},
      "color": "rgb(40,179,106)",
      "size": 4.0,
      "label": "4"
    },
    {
      "source": "j.gajda",
      "target": "p.kruczek",
      "id": "136",
      "attributes": {},
      "color": "rgb(249,119,67)",
      "size": 1.0,
      "label": "1"
    },
    {
      "source": "a.wylomanska",
      "target": "j.sokolowski",
      "id": "17",
      "attributes": {},
      "color": "rgb(249,119,67)",
      "size": 1.0,
      "label": "1"
    },
    {
      "source": "k.burnecki",
      "target": "z.palmowski",
      "id": "105",
      "attributes": {},
      "color": "rgb(97,164,167)",
      "size": 1.0,
      "label": "1"
    },
    {
      "source": "a.weron",
      "target": "t.piesiewicz",
      "id": "69",
      "attributes": {},
      "color": "rgb(154,150,229)",
      "size": 1.0,
      "label": "1"
    },
    {
      "source": "l.plociniczak",
      "target": "z.palmowski",
      "id": "142",
      "attributes": {},
      "color": "rgb(40,179,106)",
      "size": 1.0,
      "label": "1"
    },
    {
      "source": "j.janczura",
      "target": "m.malek",
      "id": "122",
      "attributes": {},
      "color": "rgb(154,150,229)",
      "size": 1.0,
      "label": "1"
    },
    {
      "source": "r.weron",
      "target": "g.kukla",
      "id": "110",
      "attributes": {},
      "color": "rgb(154,150,229)",
      "size": 1.0,
      "label": "1"
    },
    {
      "source": "a.wylomanska",
      "target": "l.bielak",
      "id": "19",
      "attributes": {},
      "color": "rgb(249,119,67)",
      "size": 3.0,
      "label": "3"
    },
    {
      "source": "r.weron",
      "target": "b.kozlowska",
      "id": "108",
      "attributes": {},
      "color": "rgb(154,150,229)",
      "size": 1.0,
      "label": "1"
    },
    {
      "source": "k.burnecki",
      "target": "a.wilkowska",
      "id": "92",
      "attributes": {},
      "color": "rgb(201,134,148)",
      "size": 1.0,
      "label": "1"
    },
    {
      "source": "m.teuerle",
      "target": "j.gajda",
      "id": "41",
      "attributes": {},
      "color": "rgb(249,119,67)",
      "size": 1.0,
      "label": "1"
    },
    {
      "source": "a.weron",
      "target": "z.michna",
      "id": "70",
      "attributes": {},
      "color": "rgb(154,150,229)",
      "size": 4.0,
      "label": "4"
    },
    {
      "source": "a.wylomanska",
      "target": "m.teuerle",
      "id": "22",
      "attributes": {},
      "color": "rgb(249,119,67)",
      "size": 11.0,
      "label": "11"
    },
    {
      "source": "a.weron",
      "target": "p.mista",
      "id": "65",
      "attributes": {},
      "color": "rgb(154,150,229)",
      "size": 4.0,
      "label": "4"
    },
    {
      "source": "g.sikora",
      "target": "m.balcerek",
      "id": "35",
      "attributes": {},
      "color": "rgb(201,134,148)",
      "size": 2.0,
      "label": "2"
    },
    {
      "source": "m.teuerle",
      "target": "m.balcerek",
      "id": "43",
      "attributes": {},
      "color": "rgb(201,134,148)",
      "size": 1.0,
      "label": "1"
    },
    {
      "source": "g.sikora",
      "target": "m.teuerle",
      "id": "37",
      "attributes": {},
      "color": "rgb(249,119,67)",
      "size": 5.0,
      "label": "5"
    },
    {
      "source": "k.burnecki",
      "target": "a.stanislavsky",
      "id": "91",
      "attributes": {},
      "color": "rgb(154,150,229)",
      "size": 1.0,
      "label": "1"
    },
    {
      "source": "a.wylomanska",
      "target": "r.poloczanski",
      "id": "24",
      "attributes": {},
      "color": "rgb(249,119,67)",
      "size": 5.0,
      "label": "5"
    },
    {
      "source": "a.weron",
      "target": "j.nowicka-zagrajek",
      "id": "55",
      "attributes": {},
      "color": "rgb(154,150,229)",
      "size": 4.0,
      "label": "4"
    },
    {
      "source": "a.weron",
      "target": "j.szwabinski",
      "id": "57",
      "attributes": {},
      "color": "rgb(154,150,229)",
      "size": 2.0,
      "label": "2"
    },
    {
      "source": "m.magdziarz",
      "target": "s.orzel",
      "id": "84",
      "attributes": {},
      "color": "rgb(144,149,86)",
      "size": 1.0,
      "label": "1"
    },
    {
      "source": "m.teuerle",
      "target": "g.zak",
      "id": "40",
      "attributes": {},
      "color": "rgb(249,119,67)",
      "size": 1.0,
      "label": "1"
    },
    {
      "source": "j.janczura",
      "target": "p.kowalek",
      "id": "123",
      "attributes": {},
      "color": "rgb(154,150,229)",
      "size": 2.0,
      "label": "2"
    },
    {
      "source": "m.magdziarz",
      "target": "j.janczura",
      "id": "79",
      "attributes": {},
      "color": "rgb(97,164,167)",
      "size": 1.0,
      "label": "1"
    },
    {
      "source": "h.loch-olszewska",
      "target": "m.balcerek",
      "id": "127",
      "attributes": {},
      "color": "rgb(154,150,229)",
      "size": 1.0,
      "label": "1"
    },
    {
      "source": "a.weron",
      "target": "a.makagon",
      "id": "50",
      "attributes": {},
      "color": "rgb(201,134,148)",
      "size": 1.0,
      "label": "1"
    },
    {
      "source": "m.kozlowski",
      "target": "r.weron",
      "id": "106",
      "attributes": {},
      "color": "rgb(154,150,229)",
      "size": 1.0,
      "label": "1"
    },
    {
      "source": "a.grzesiek",
      "target": "g.sikora",
      "id": "1",
      "attributes": {},
      "color": "rgb(249,119,67)",
      "size": 2.0,
      "label": "2"
    },
    {
      "source": "a.wylomanska",
      "target": "j.gajda",
      "id": "12",
      "attributes": {},
      "color": "rgb(249,119,67)",
      "size": 14.0,
      "label": "14"
    },
    {
      "source": "m.teuerle",
      "target": "k.burnecki",
      "id": "42",
      "attributes": {},
      "color": "rgb(201,134,148)",
      "size": 2.0,
      "label": "2"
    },
    {
      "source": "k.burnecki",
      "target": "m.balcerek",
      "id": "99",
      "attributes": {},
      "color": "rgb(154,150,229)",
      "size": 4.0,
      "label": "4"
    },
    {
      "source": "g.sikora",
      "target": "j.janczura",
      "id": "32",
      "attributes": {},
      "color": "rgb(201,134,148)",
      "size": 1.0,
      "label": "1"
    },
    {
      "source": "a.stanislavsky",
      "target": "m.malek",
      "id": "117",
      "attributes": {},
      "color": "rgb(154,150,229)",
      "size": 1.0,
      "label": "1"
    },
    {
      "source": "a.janicki",
      "target": "a.weron",
      "id": "47",
      "attributes": {},
      "color": "rgb(154,150,229)",
      "size": 2.0,
      "label": "2"
    },
    {
      "source": "s.orzel",
      "target": "j.janczura",
      "id": "86",
      "attributes": {},
      "color": "rgb(201,134,148)",
      "size": 1.0,
      "label": "1"
    },
    {
      "source": "a.wylomanska",
      "target": "s.ondruszko",
      "id": "26",
      "attributes": {},
      "color": "rgb(249,119,67)",
      "size": 1.0,
      "label": "1"
    },
    {
      "source": "a.wylomanska",
      "target": "a.jurlewicz",
      "id": "3",
      "attributes": {},
      "color": "rgb(249,119,67)",
      "size": 2.0,
      "label": "2"
    },
    {
      "source": "g.sikora",
      "target": "j.gajda",
      "id": "31",
      "attributes": {},
      "color": "rgb(249,119,67)",
      "size": 3.0,
      "label": "3"
    },
    {
      "source": "g.zak",
      "target": "j.obuchowski",
      "id": "134",
      "attributes": {},
      "color": "rgb(249,119,67)",
      "size": 3.0,
      "label": "3"
    },
    {
      "source": "g.krzyzanowski",
      "target": "l.plociniczak",
      "id": "140",
      "attributes": {},
      "color": "rgb(40,179,106)",
      "size": 1.0,
      "label": "1"
    },
    {
      "source": "a.misiorek",
      "target": "k.burnecki",
      "id": "88",
      "attributes": {},
      "color": "rgb(154,150,229)",
      "size": 1.0,
      "label": "1"
    },
    {
      "source": "k.burnecki",
      "target": "w.nitka",
      "id": "104",
      "attributes": {},
      "color": "rgb(154,150,229)",
      "size": 1.0,
      "label": "1"
    },
    {
      "source": "a.weron",
      "target": "m.borgosz-koczwara",
      "id": "60",
      "attributes": {},
      "color": "rgb(201,134,148)",
      "size": 1.0,
      "label": "1"
    },
    {
      "source": "a.wylomanska",
      "target": "m.balcerek",
      "id": "20",
      "attributes": {},
      "color": "rgb(201,134,148)",
      "size": 1.0,
      "label": "1"
    },
    {
      "source": "j.nowicka-zagrajek",
      "target": "j.iwanik",
      "id": "130",
      "attributes": {},
      "color": "rgb(154,150,229)",
      "size": 1.0,
      "label": "1"
    },
    {
      "source": "l.plociniczak",
      "target": "w.okrasinski",
      "id": "141",
      "attributes": {},
      "color": "rgb(40,179,106)",
      "size": 6.0,
      "label": "6"
    },
    {
      "source": "m.teuerle",
      "target": "r.poloczanski",
      "id": "46",
      "attributes": {},
      "color": "rgb(249,119,67)",
      "size": 1.0,
      "label": "1"
    },
    {
      "source": "a.weron",
      "target": "m.kozlowski",
      "id": "61",
      "attributes": {},
      "color": "rgb(154,150,229)",
      "size": 1.0,
      "label": "1"
    },
    {
      "source": "j.szwabinski",
      "target": "p.kowalek",
      "id": "132",
      "attributes": {},
      "color": "rgb(154,150,229)",
      "size": 3.0,
      "label": "3"
    },
    {
      "source": "a.wylomanska",
      "target": "a.michalak",
      "id": "6",
      "attributes": {},
      "color": "rgb(249,119,67)",
      "size": 1.0,
      "label": "1"
    },
    {
      "source": "a.weron",
      "target": "a.stanislavsky",
      "id": "51",
      "attributes": {},
      "color": "rgb(154,150,229)",
      "size": 2.0,
      "label": "2"
    },
    {
      "source": "a.wylomanska",
      "target": "j.obuchowski",
      "id": "16",
      "attributes": {},
      "color": "rgb(249,119,67)",
      "size": 18.0,
      "label": "18"
    },
    {
      "source": "a.weron",
      "target": "m.magdziarz",
      "id": "62",
      "attributes": {},
      "color": "rgb(97,164,167)",
      "size": 19.0,
      "label": "19"
    },
    {
      "source": "k.burnecki",
      "target": "h.loch-olszewska",
      "id": "94",
      "attributes": {},
      "color": "rgb(154,150,229)",
      "size": 1.0,
      "label": "1"
    },
    {
      "source": "a.wylomanska",
      "target": "d.kucharczyk",
      "id": "8",
      "attributes": {},
      "color": "rgb(249,119,67)",
      "size": 2.0,
      "label": "2"
    },
    {
      "source": "j.janczura",
      "target": "h.loch-olszewska",
      "id": "119",
      "attributes": {},
      "color": "rgb(154,150,229)",
      "size": 4.0,
      "label": "4"
    },
    {
      "source": "j.sokolowski",
      "target": "p.kruczek",
      "id": "139",
      "attributes": {},
      "color": "rgb(249,119,67)",
      "size": 1.0,
      "label": "1"
    },
    {
      "source": "a.wylomanska",
      "target": "e.broszkiewicz-suwaj",
      "id": "9",
      "attributes": {},
      "color": "rgb(249,119,67)",
      "size": 3.0,
      "label": "3"
    },
    {
      "source": "m.magdziarz",
      "target": "j.gajda",
      "id": "78",
      "attributes": {},
      "color": "rgb(144,149,86)",
      "size": 5.0,
      "label": "5"
    },
    {
      "source": "m.kozlowski",
      "target": "t.piesiewicz",
      "id": "107",
      "attributes": {},
      "color": "rgb(154,150,229)",
      "size": 2.0,
      "label": "2"
    },
    {
      "source": "m.teuerle",
      "target": "m.magdziarz",
      "id": "44",
      "attributes": {},
      "color": "rgb(144,149,86)",
      "size": 4.0,
      "label": "4"
    },
    {
      "source": "a.wylomanska",
      "target": "k.burnecki",
      "id": "18",
      "attributes": {},
      "color": "rgb(201,134,148)",
      "size": 5.0,
      "label": "5"
    },
    {
      "source": "a.weron",
      "target": "s.orzel",
      "id": "68",
      "attributes": {},
      "color": "rgb(201,134,148)",
      "size": 3.0,
      "label": "3"
    },
    {
      "source": "k.burnecki",
      "target": "m.muszkieta",
      "id": "101",
      "attributes": {},
      "color": "rgb(154,150,229)",
      "size": 1.0,
      "label": "1"
    },
    {
      "source": "a.weron",
      "target": "m.muszkieta",
      "id": "63",
      "attributes": {},
      "color": "rgb(154,150,229)",
      "size": 1.0,
      "label": "1"
    },
    {
      "source": "k.burnecki",
      "target": "g.kukla",
      "id": "93",
      "attributes": {},
      "color": "rgb(154,150,229)",
      "size": 4.0,
      "label": "4"
    },
    {
      "source": "a.wylomanska",
      "target": "s.orzel",
      "id": "27",
      "attributes": {},
      "color": "rgb(249,119,67)",
      "size": 2.0,
      "label": "2"
    },
    {
      "source": "r.weron",
      "target": "j.nowicka-zagrajek",
      "id": "112",
      "attributes": {},
      "color": "rgb(154,150,229)",
      "size": 3.0,
      "label": "3"
    },
    {
      "source": "j.janczura",
      "target": "j.szwabinski",
      "id": "121",
      "attributes": {},
      "color": "rgb(154,150,229)",
      "size": 2.0,
      "label": "2"
    },
    {
      "source": "a.wylomanska",
      "target": "r.weron",
      "id": "25",
      "attributes": {},
      "color": "rgb(201,134,148)",
      "size": 1.0,
      "label": "1"
    },
    {
      "source": "a.weron",
      "target": "j.slezak",
      "id": "56",
      "attributes": {},
      "color": "rgb(97,164,167)",
      "size": 1.0,
      "label": "1"
    },
    {
      "source": "m.magdziarz",
      "target": "t.zorawik",
      "id": "85",
      "attributes": {},
      "color": "rgb(40,179,106)",
      "size": 8.0,
      "label": "8"
    },
    {
      "source": "k.burnecki",
      "target": "j.nowicka-zagrajek",
      "id": "97",
      "attributes": {},
      "color": "rgb(154,150,229)",
      "size": 12.0,
      "label": "12"
    },
    {
      "source": "j.janczura",
      "target": "j.obuchowski",
      "id": "120",
      "attributes": {},
      "color": "rgb(201,134,148)",
      "size": 1.0,
      "label": "1"
    },
    {
      "source": "a.wylomanska",
      "target": "a.makagon",
      "id": "5",
      "attributes": {},
      "color": "rgb(249,119,67)",
      "size": 1.0,
      "label": "1"
    },
    {
      "source": "m.teuerle",
      "target": "a.wilkowska",
      "id": "39",
      "attributes": {},
      "color": "rgb(249,119,67)",
      "size": 1.0,
      "label": "1"
    },
    {
      "source": "d.kucharczyk",
      "target": "j.obuchowski",
      "id": "133",
      "attributes": {},
      "color": "rgb(249,119,67)",
      "size": 1.0,
      "label": "1"
    },
    {
      "source": "g.sikora",
      "target": "h.loch-olszewska",
      "id": "30",
      "attributes": {},
      "color": "rgb(201,134,148)",
      "size": 1.0,
      "label": "1"
    },
    {
      "source": "m.malek",
      "target": "w.nitka",
      "id": "125",
      "attributes": {},
      "color": "rgb(154,150,229)",
      "size": 1.0,
      "label": "1"
    },
    {
      "source": "a.weron",
      "target": "p.sztuba",
      "id": "66",
      "attributes": {},
      "color": "rgb(154,150,229)",
      "size": 1.0,
      "label": "1"
    },
    {
      "source": "g.zak",
      "target": "p.kruczek",
      "id": "135",
      "attributes": {},
      "color": "rgb(249,119,67)",
      "size": 1.0,
      "label": "1"
    },
    {
      "source": "a.wylomanska",
      "target": "j.nowicka-zagrajek",
      "id": "15",
      "attributes": {},
      "color": "rgb(201,134,148)",
      "size": 4.0,
      "label": "4"
    }
  ]
}